Visualizing Educational Attainment in NYC with Dot-Density Map
…
Data Manipulation

The educational attainment is retrieved from table B15003, however, the ACS has coded 25 levels of educational attainment, B15003_001 through B15003_025. Our next step should aggregate the data into four groups, No HS diploma, HS, no Bachelors, and Post-Bachelors. - B15003_001 is ommited as it contains the estimated total population for that area. - B15003_002-through B15003_016 includes observations without HS diplomas; - B15003_17 through B15003_21 includes HS diploma and no Bachelors degree; - B15003_22 includes Bachelors degree; and - B15003_23 through B15003_025 includes post-Bachelors degree.

#ACS code values
v16 %>% filter(str_detect(name, "B15003_"))

## # A tibble: 25 x 3
##    name     label                     concept                              
##    <chr>    <chr>                     <chr>                                
##  1 B15003_~ Estimate!!Total           EDUCATIONAL ATTAINMENT FOR THE POPUL~
##  2 B15003_~ Estimate!!Total!!No scho~ EDUCATIONAL ATTAINMENT FOR THE POPUL~
##  3 B15003_~ Estimate!!Total!!Nursery~ EDUCATIONAL ATTAINMENT FOR THE POPUL~
##  4 B15003_~ Estimate!!Total!!Kinderg~ EDUCATIONAL ATTAINMENT FOR THE POPUL~
##  5 B15003_~ Estimate!!Total!!1st gra~ EDUCATIONAL ATTAINMENT FOR THE POPUL~
##  6 B15003_~ Estimate!!Total!!2nd gra~ EDUCATIONAL ATTAINMENT FOR THE POPUL~
##  7 B15003_~ Estimate!!Total!!3rd gra~ EDUCATIONAL ATTAINMENT FOR THE POPUL~
##  8 B15003_~ Estimate!!Total!!4th gra~ EDUCATIONAL ATTAINMENT FOR THE POPUL~
##  9 B15003_~ Estimate!!Total!!5th gra~ EDUCATIONAL ATTAINMENT FOR THE POPUL~
## 10 B15003_~ Estimate!!Total!!6th gra~ EDUCATIONAL ATTAINMENT FOR THE POPUL~
## # ... with 15 more rows
…
Education

## Simple feature collection with 8668 features and 3 fields (with 4 geometries empty)
## geometry type:  GEOMETRY
## dimension:      XY
## bbox:           xmin: -74.25609 ymin: 40.4961 xmax: -73.70002 ymax: 40.91758
## epsg (SRID):    4269
## proj4string:    +proj=longlat +datum=NAD83 +no_defs
## # A tibble: 8,668 x 4
## # Groups:   GEOID [2,167]
##    GEOID    education   estimate                                   geometry
##    <chr>    <chr>          <dbl>                             <POLYGON []>
##  1 3600500~ Bachelors         35 ((-73.8925 40.80121, -73.87226 40.79499, ~
##  2 3600500~ HS, no Bac~     2105 ((-73.8925 40.80121, -73.87226 40.79499, ~
##  3 3600500~ No HS dipl~     3141 ((-73.8925 40.80121, -73.87226 40.79499, ~
##  4 3600500~ Post-Bache~       41 ((-73.8925 40.80121, -73.87226 40.79499, ~
##  5 3600500~ Bachelors        412 ((-73.86522 40.81453, -73.86425 40.81466,~
##  6 3600500~ HS, no Bac~     2079 ((-73.86522 40.81453, -73.86425 40.81466,~
##  7 3600500~ No HS dipl~      799 ((-73.86522 40.81453, -73.86425 40.81466,~
##  8 3600500~ Post-Bache~      203 ((-73.86522 40.81453, -73.86425 40.81466,~
##  9 3600500~ Bachelors        593 ((-73.8587 40.8154, -73.85778 40.81553, -~
## 10 3600500~ HS, no Bac~     2529 ((-73.8587 40.8154, -73.85778 40.81553, -~
## # ... with 8,658 more rows
…
